*** Darwin 16x14 ***
Turn = 0.
  01234567890123
0 ....h..t..h...
1 ...t....rh..f.
2 ....r...f.....
3 ..rh...h.rr...
4 ...r......r...
5 .f......r...f.
6 h..h....tf.r.h
7 ...h.hf....f.t
8 .h...t........
9 h..tr.rt...h.f
0 ..r....rr.....
1 .....r.h..h.tt
2 r.....ft......
3 .h......r.....
4 ft.......f.r..
5 .........hrf.r

Turn = 13.
  01234567890123
0 rrrrr.rrr.h.rr
1 rr...rr.r...rr
2 r....r..r.rr..
3 .r.rr...rr....
4 ...rr......rrr
5 .f..r.......rr
6 .r...........r
7 .rr..........r
8 .r........rr..
9 .........r...r
0 r.........r...
1 .......t.r....
2 ......tt......
3 ..............
4 tt.r.....f....
5 .......r.h.f..

Turn = 26.
  01234567890123
0 r..r....rrr.rr
1 rr........rr..
2 r....rr....r.r
3 ..rrr.........
4 r..r...rrrr...
5 .r.rrr.r......
6 ......r.....r.
7 r.r...........
8 .r..........r.
9 r...........r.
0 rr.....r...rrr
1 r.r....tt.....
2 ...r..tt.....r
3 ...........r.r
4 ..r.....r...r.
5 ....r.......rr

*** Darwin 8x8 ***
Turn = 0.
  01234567
0 ...t.r..
1 .tt.h.r.
2 ...hh...
3 ....r..t
4 .h......
5 ......t.
6 .......r
7 ...h.t..

Turn = 27.
  01234567
0 ...tt...
1 .ttt....
2 .t.tt..t
3 .....ttt
4 .......t
5 ......t.
6 ........
7 .....t..

*** Darwin 12x19 ***
Turn = 0.
  0123456789012345678
0 ..r.....t..h...t..f
1 .r...h......r......
2 .......t.....r.....
3 ....t..............
4 .f........f.r.....h
5 .f...f...h......r..
6 .............h.....
7 ....r...t..........
8 ......r.....t......
9 ......h............
0 ...................
1 t..f......ff.......

Turn = 1.
  0123456789012345678
0 .rr..h..t..hr..t..f
1 .............r.....
2 .......t...........
3 ....t.......r.....h
4 .f.......hf.....r..
5 .f...f.......h.....
6 ....r..............
7 ......r.t..........
8 ......h.....t......
9 ...................
0 ...................
1 t..f......ff.......

Turn = 2.
  0123456789012345678
0 .r.r.h..t..hrr.t..f
1 ...................
2 .......t....r.....h
3 ....t....h......r..
4 .f........f..h.....
5 .f..rf.............
6 ......r............
7 ......h.t..........
8 ............t......
9 ...................
0 ...................
1 t..f......ff.......

Turn = 3.
  0123456789012345678
0 r...rh..t..hrr.t..f
1 ............r.....h
2 .......t.h......r..
3 ....t........h.....
4 .f..r.....f........
5 .f...fr............
6 ......h............
7 ........t..........
8 ............t......
9 ...................
0 ...................
1 t..f......ff.......

Turn = 4.
  0123456789012345678
0 r...rr..t..hr.rt..f
1 .........h..r...r.h
2 .......t.....h.....
3 ....r..............
4 .f..r.r...f........
5 .f...fh............
6 ...................
7 ........t..........
8 ............t......
9 ...................
0 ...................
1 t..f......ff.......

Turn = 5.
  0123456789012345678
0 r...rr..th.h.rrrr.f
1 .............r....h
2 ....r..t.....h.....
3 ....r.r............
4 .f....h...f........
5 .f...f.............
6 ...................
7 ........t..........
8 ............t......
9 ...................
0 ...................
1 t..f......ff.......

Turn = 6.
  0123456789012345678
0 .r..rr..th.h.rrrr.f
1 ....r........hr...h
2 ....r.rt...........
3 ......h............
4 .f........f........
5 .f...f.............
6 ...................
7 ........t..........
8 ............t......
9 ...................
0 ...................
1 t..f......ff.......

Turn = 7.
  0123456789012345678
0 ..r.r.r.th.h.rrr..f
1 ....r.r......hrr..h
2 ....r.ht...........
3 ...................
4 .f........f........
5 .f...f.............
6 ...................
7 ........t..........
8 ............t......
9 ...................
0 ...................
1 t..f......ff.......

Turn = 8.
  0123456789012345678
0 ...rr.rrtt.h.rrr..f
1 .....rh......h....h
2 ...r...t......rr...
3 ...................
4 .f........f........
5 .f...f.............
6 ...................
7 ........t..........
8 ............t......
9 ...................
0 ...................
1 t..f......ff.......

Turn = 9.
  0123456789012345678
0 ...rr.rrrr.h.rrr..f
1 .....rr......h....h
2 ..r....t...........
3 ..............rr...
4 .f........f........
5 .f...f.............
6 ...................
7 ........t..........
8 ............t......
9 ...................
0 ...................
1 t..f......ff.......

Turn = 10.
  0123456789012345678
0 ....rr.rr..hrhr.r.f
1 ...r.r.r.r........h
2 .r.....t...........
3 ...................
4 .f........f...rr...
5 .f...f.............
6 ...................
7 ........t..........
8 ............t......
9 ...................
0 ...................
1 t..f......ff.......

Turn = 11.
  0123456789012345678
0 ...rr..rr..rrh...rf
1 ........r.....r...h
2 r..r.r.t.r.........
3 ...................
4 .f........f........
5 .f...f........rr...
6 ...................
7 ........t..........
8 ............t......
9 ...................
0 ...................
1 t..f......ff.......

Turn = 12.
  0123456789012345678
0 ..rr..r..r.rrh...rr
1 .........r........h
2 r......t......r....
3 ...r.r...r.........
4 .f........f........
5 .f...f.............
6 ..............rr...
7 ........t..........
8 ............t......
9 ...................
0 ...................
1 t..f......ff.......

Turn = 13.
  0123456789012345678
0 .rr..r....rrrh...rr
1 ..........r.......h
2 .......t...........
3 r.............r....
4 .f.r.r...rf........
5 .f...f.............
6 ...................
7 ........t.....rr...
8 ............t......
9 ...................
0 ...................
1 t..f......ff.......

Turn = 14.
  0123456789012345678
0 rr..r.....rrrh...rh
1 ...........r.....r.
2 .......t...........
3 ...................
4 rf...r....f...r....
5 .f.rr....r.........
6 ...................
7 ........t..........
8 ............t.rr...
9 ...................
0 ...................
1 t..f......ff.......

Turn = 15.
  0123456789012345678
0 rr.r......r..h..r.h
1 ..........rrr......
2 .......t.........r.
3 ...................
4 .f........f........
5 rf.r.r........r....
6 ...r.....r.........
7 ........t..........
8 ............t......
9 ..............rr...
0 ...................
1 t..f......ff.......

Turn = 16.
  0123456789012345678
0 r.r......r.r.h.r..h
1 .r.................
2 .......t..r.r......
3 .................r.
4 .f........f........
5 .fr................
6 r....r........r....
7 ...r....tt.........
8 ............t......
9 ...................
0 ..............rr...
1 t..f......ff.......

Turn = 17.
  0123456789012345678
0 rr......r..r.hr...h
1 ...................
2 .r.....t...........
3 ..........r.r......
4 .f........f......r.
5 .rr................
6 ...................
7 r....r..tt....r....
8 ...r........t......
9 ...................
0 ...................
1 t..f......ff..rr...

Turn = 18.
  0123456789012345678
0 rr.....r....rrr...h
1 ...................
2 .......t...........
3 .r........r........
4 .f.......r..r......
5 rr...............r.
6 ...................
7 ........tt.........
8 r....r......t.r....
9 ...r...............
0 ...................
1 t..f......ff..rr...

Turn = 19.
  0123456789012345678
0 r.....r.....rrr...h
1 .r.................
2 .......t...........
3 .r.................
4 .r......r.r........
5 rr..........r......
6 .................r.
7 ........tt.........
8 ............t......
9 r....r........r....
0 ...r...............
1 t..f......ff.r..r..

Turn = 20.
  0123456789012345678
0 .....r......rrr...h
1 r..................
2 .r.....t...........
3 .r.................
4 rr.....r...........
5 ..........r........
6 r...........r......
7 ........tt.......r.
8 ............t......
9 ...................
0 r..r.r........r....
1 t...r.....ffr....r.

Turn = 21.
  0123456789012345678
0 ....r......r.r....h
1 .............r.....
2 rr.....t...........
3 rr.................
4 r.....r............
5 ...................
6 ..........r........
7 r.......tt..t......
8 ............t....r.
9 ...................
0 r..................
1 r..rrr....frr.r...r

Turn = 22.
  0123456789012345678
0 ...r......r.r.....h
1 ...................
2 rrr....t.....r.....
3 r..................
4 .....r.............
5 r..................
6 ...................
7 ........ttt.t......
8 r...........t......
9 .................r.
0 r...r..............
1 .r.r.r....rrr.r...r

*** Darwin 5x6 ***
Turn = 0.
  012345
0 ....f.
1 .f..t.
2 .h....
3 .thh..
4 .fr...

Turn = 4.
  012345
0 ..tht.
1 .tt.t.
2 .t....
3 .t....
4 .t....

Turn = 8.
  012345
0 ..ttt.
1 .tt.t.
2 .t....
3 .t....
4 .t....

Turn = 12.
  012345
0 ..ttt.
1 .tt.t.
2 .t....
3 .t....
4 .t....

Turn = 16.
  012345
0 ..ttt.
1 .tt.t.
2 .t....
3 .t....
4 .t....

*** Darwin 12x18 ***
Turn = 0.
  012345678901234567
0 ..............f...
1 ............tt...h
2 .h...r...h....hhr.
3 .h......t.........
4 ........f.........
5 ......t.......t...
6 .t.....t........h.
7 t............f....
8 ...f..t...........
9 ........t...h.....
0 t...r.......r.....
1 .....f.........h..

Turn = 3.
  012345678901234567
0 .h...r...h....fhrh
1 .h..........tth...
2 ..................
3 ........t.......h.
4 ........t.........
5 ......t.......t...
6 .t.....t....h.....
7 t...r.......rf....
8 ...f..t........h..
9 ........t.........
0 t.................
1 .....f............

Turn = 6.
  012345678901234567
0 .h......rh....trrh
1 .h..........ttt.h.
2 ..................
3 ........t...h.....
4 ....r...t...r.....
5 ......t.......th..
6 .t.....t..........
7 t............f....
8 ...f..t...........
9 ........t.........
0 t.................
1 .....f............

Turn = 9.
  012345678901234567
0 .h.......r....t.tr
1 .h..r...r...rtttt.
2 ............r..h..
3 ........t...r.....
4 ........t.........
5 ......t.......t...
6 .t.....t..........
7 t............f....
8 ...f..t...........
9 ........t.........
0 t.................
1 .....f............

Turn = 12.
  012345678901234567
0 .h.r..r.....r.t.tt
1 .h.......r...tttt.
2 ........t......h..
3 ........tr........
4 ........t.........
5 ......t.......t...
6 .t.....t..........
7 t............f....
8 ...f..t...........
9 ........t.........
0 t.................
1 .....f............

Turn = 15.
  012345678901234567
0 .rrr.....r....t.tt
1 .h......t....tttt.
2 ........t......t..
3 ........tt........
4 ........t.........
5 ......t.......t...
6 .t.....t..........
7 t............f....
8 ...f..t...........
9 ........t.........
0 t.................
1 .....f............

Turn = 18.
  012345678901234567
0 rrr...r.......t.tt
1 ........t....tttt.
2 ........t......t..
3 ..r.....tt........
4 ........t.........
5 ......t.......t...
6 .t.....t..........
7 t............f....
8 ...f..t...........
9 ........t.........
0 t.................
1 .....f............

Turn = 21.
  012345678901234567
0 .rrr..........t.tt
1 ........t....tttt.
2 r.......t......t..
3 ........tt........
4 ........t.........
5 ......t.......t...
6 .tr....t..........
7 t............f....
8 ...f..t...........
9 ........t.........
0 t.................
1 .....f............

Turn = 24.
  012345678901234567
0 .r............t.tt
1 ........t....tttt.
2 ...r....t......t..
3 .r......tt........
4 ........t.........
5 r.....t.......t...
6 .t.....t..........
7 t............f....
8 ...f..t...........
9 ..r.....t.........
0 t.................
1 .....f............

Turn = 27.
  012345678901234567
0 r.............t.tt
1 ........t....tttt.
2 ........t......t..
3 ........tt........
4 ........t.........
5 .r.r..t.......t...
6 tt.....t..........
7 t............f....
8 ...f..t...........
9 ........t.........
0 t.................
1 ..r..f............

Turn = 30.
  012345678901234567
0 ...r..........t.tt
1 ........t....tttt.
2 ........t......t..
3 ........tt........
4 ........t.........
5 .t....t.......t...
6 tt.....t..........
7 t..r.........f....
8 ..r...t...........
9 ........t.........
0 t.................
1 r....f............

Turn = 33.
  012345678901234567
0 ......r.......t.tt
1 ........t....tttt.
2 ........t......t..
3 ........tt........
4 ........t.........
5 .t....t.......t...
6 tt.....t..........
7 t............f....
8 r.....t...........
9 ........t.........
0 t..r..............
1 t....f............

Turn = 36.
  012345678901234567
0 .........r....t.tt
1 ........t....tttt.
2 ........t......t..
3 ........tt........
4 ........t.........
5 .t....t.......t...
6 tt.....t..........
7 r............f....
8 .r....t...........
9 ........t.........
0 t.................
1 t.r..f............

Turn = 39.
  012345678901234567
0 ............r.t.tt
1 ........t....tttt.
2 ........t......t..
3 ........tt........
4 ........t.........
5 .t....t.......t...
6 tt.....t..........
7 t............f....
8 ....r.t...........
9 ........t.........
0 t.................
1 rr...f............

Turn = 42.
  012345678901234567
0 .............tt.tt
1 ........t....tttt.
2 ........t......t..
3 ........tt........
4 ........t.........
5 .t....t.......t...
6 tt....rt..........
7 t............f....
8 ......r...........
9 ........t.........
0 t.................
1 rr...f............

*** Darwin 14x10 ***
Turn = 0.
  0123456789
0 t..tr....t
1 .....r....
2 .........h
3 .....ht...
4 .....t..hr
5 ..........
6 ..t...r.f.
7 ..........
8 .......th.
9 ....r.f...
0 ..t.....h.
1 r.........
2 rf.......t
3 fh...hrt..

Turn = 4.
  0123456789
0 t..ttt.rht
1 .........r
2 .........r
3 ......t...
4 .....tt...
5 ....r.....
6 ..t.....f.
7 r.......t.
8 r......tt.
9 .....hr...
0 ..t...r...
1 ..........
2 .f.......t
3 fh.....t..

*** Darwin 4x12 ***
Turn = 0.
  012345678901
0 ......h...h.
1 f.tt...h....
2 ...f.t.r..f.
3 h......hh...

Turn = 21.
  012345678901
0 ..........r.
1 f.tt.tt.....
2 h..t.tr...r.
3 .......r...r

*** Darwin 13x1 ***
Turn = 0.
  0
0 .
1 .
2 .
3 .
4 .
5 .
6 .
7 r
8 .
9 .
0 f
1 .
2 .

Turn = 1.
  0
0 .
1 .
2 .
3 .
4 .
5 .
6 r
7 .
8 .
9 .
0 f
1 .
2 .

Turn = 2.
  0
0 .
1 .
2 .
3 .
4 .
5 r
6 .
7 .
8 .
9 .
0 f
1 .
2 .

Turn = 3.
  0
0 .
1 .
2 .
3 .
4 r
5 .
6 .
7 .
8 .
9 .
0 f
1 .
2 .

Turn = 4.
  0
0 .
1 .
2 .
3 r
4 .
5 .
6 .
7 .
8 .
9 .
0 f
1 .
2 .

Turn = 5.
  0
0 .
1 .
2 r
3 .
4 .
5 .
6 .
7 .
8 .
9 .
0 f
1 .
2 .

Turn = 6.
  0
0 .
1 r
2 .
3 .
4 .
5 .
6 .
7 .
8 .
9 .
0 f
1 .
2 .

Turn = 7.
  0
0 r
1 .
2 .
3 .
4 .
5 .
6 .
7 .
8 .
9 .
0 f
1 .
2 .

Turn = 8.
  0
0 r
1 .
2 .
3 .
4 .
5 .
6 .
7 .
8 .
9 .
0 f
1 .
2 .

Turn = 9.
  0
0 r
1 .
2 .
3 .
4 .
5 .
6 .
7 .
8 .
9 .
0 f
1 .
2 .

Turn = 10.
  0
0 r
1 .
2 .
3 .
4 .
5 .
6 .
7 .
8 .
9 .
0 f
1 .
2 .

Turn = 11.
  0
0 r
1 .
2 .
3 .
4 .
5 .
6 .
7 .
8 .
9 .
0 f
1 .
2 .

Turn = 12.
  0
0 .
1 r
2 .
3 .
4 .
5 .
6 .
7 .
8 .
9 .
0 f
1 .
2 .

*** Darwin 8x15 ***
Turn = 0.
  012345678901234
0 ...f..fr..ht.f.
1 ..h.....rf..r..
2 .......t.....r.
3 .....r.f......h
4 .fht.h...h..hr.
5 .....t........r
6 .h.ff......t.rf
7 .........h.ht..

Turn = 10.
  012345678901234
0 ..rrrrr...rrrrt
1 ..h......rrr...
2 .......t.rr....
3 .......t.h.....
4 .f.t..r......r.
5 .h...t........r
6 ...ff.....tt..f
7 ...........tt..

*** Darwin 7x13 ***
Turn = 0.
  0123456789012
0 ...f.........
1 ............t
2 .....r.....f.
3 f.....r......
4 .............
5 .h...........
6 .............

Turn = 14.
  0123456789012
0 .h.f........r
1 ...........rr
2 ..........r..
3 f............
4 .............
5 .............
6 .............

*** Darwin 18x15 ***
Turn = 0.
  012345678901234
0 h........h.....
1 ........h....f.
2 ...............
3 h..............
4 ...............
5 ...............
6 .............r.
7 ...............
8 ......r........
9 ..h............
0 ...............
1 ...............
2 ...............
3 ..........t....
4 ...............
5 ...............
6 ...............
7 ...............

Turn = 23.
  012345678901234
0 r...r...hh.....
1 h..............
2 ...............
3 ...............
4 ...............
5 ...............
6 ...............
7 ...............
8 ..rr...........
9 ...............
0 ...............
1 ...............
2 ...............
3 ..........t...r
4 ...............
5 ...............
6 ...............
7 ...............

*** Darwin 6x12 ***
Turn = 0.
  012345678901
0 ..h.........
1 ...t........
2 ...t...r....
3 ............
4 ..f......ht.
5 .h..h...f...

Turn = 33.
  012345678901
0 r..tt.......
1 r..t........
2 .r.tt.......
3 ............
4 ..f.........
5 r...........

*** Darwin 5x15 ***
Turn = 0.
  012345678901234
0 r.........ht.r.
1 .....h..f..t...
2 ........h.fhf..
3 ...rt.r......h.
4 ..hf.t....f.f.f

Turn = 27.
  012345678901234
0 ...rr.rrr....rr
1 r..r....r....r.
2 ....tr.........
3 r....rr..r.....
4 .r.r....r..r...

*** Darwin 11x13 ***
Turn = 0.
  0123456789012
0 t.ft.h..h..th
1 .ft.t.f.h.f.f
2 h.rt.....rtr.
3 ..f.f.tr..r..
4 h..........r.
5 rt...t..tfrtr
6 .ft.....r.t..
7 .............
8 ....tt.f...rh
9 ...t..h...t..
0 .f.........f.

*** Darwin 10x17 ***
Turn = 0.
  01234567890123456
0 r.r..trhh.......r
1 ........tf....rt.
2 .......hht...r.r.
3 h..rr.hht..th....
4 .f.r....h.h...hr.
5 .r....r..h.....f.
6 ....h..t..t.f.t..
7 ....t...f....htr.
8 r...h.....t..h...
9 .......f.........

Turn = 30.
  01234567890123456
0 r.....rttrtr..r..
1 r....trrttt.r....
2 ....ttrrrt.......
3 ........tttt.....
4 .......r..tt.....
5 ..............t.t
6 .......t.....tttt
7 r...t..tt.....tt.
8 ....tt.......r...
9 .r...t......r.r..

*** Darwin 8x18 ***
Turn = 0.
  012345678901234567
0 ...r.ht....t.r....
1 ......t.t...t.ft..
2 ...rt...f.t.......
3 .......h.tr.t..h..
4 ...r.r.rr.......r.
5 .......hr.........
6 .......hr.fr.....h
7 ......t..f..t.h.h.

Turn = 10.
  012345678901234567
0 rrr...t..r..rr..hh
1 ....ttttt.rtt.tt..
2 ....t..tttt...tt..
3 .......ttt..t.....
4 ........t.........
5 ................r.
6 ..........f.......
7 ......t..f..t.....

*** Darwin 16x3 ***
Turn = 0.
  012
0 .r.
1 ...
2 r.r
3 .t.
4 ...
5 .t.
6 ...
7 .t.
8 r.r
9 .rf
0 t.t
1 .t.
2 ..t
3 .th
4 t..
5 ..f

Turn = 8.
  012
0 ...
1 ...
2 r.r
3 tt.
4 ..r
5 .tr
6 ...
7 ...
8 ..t
9 r.t
0 .rt
1 .t.
2 ..t
3 .tt
4 t..
5 ..f

Turn = 16.
  012
0 .r.
1 ...
2 ...
3 rrt
4 ..t
5 .tt
6 ...
7 ...
8 ..t
9 ..t
0 .tt
1 .t.
2 r.t
3 rtt
4 ...
5 ..f

*** Darwin 3x4 ***
Turn = 0.
  0123
0 ....
1 t...
2 h..r

*** Darwin 8x8 ***
Turn = 0.
  01234567
0 ........
1 ...h..t.
2 h.t.....
3 ..f.....
4 rf......
5 ........
6 r....r..
7 ....h...

Turn = 6.
  01234567
0 .r.h.r..
1 r...h.t.
2 .rt.....
3 ..t.....
4 .f......
5 ........
6 ........
7 ........

Turn = 12.
  01234567
0 .rr.h.r.
1 r..r..t.
2 ........
3 rtt.....
4 ........
5 ........
6 ........
7 ........

Turn = 18.
  01234567
0 ..r.r...
1 ....r.t.
2 .rr.....
3 rr.r....
4 ........
5 ........
6 ........
7 ...r....

Turn = 24.
  01234567
0 r..r..rr
1 ......t.
2 ........
3 ........
4 ........
5 .r......
6 r.......
7 .rr.r...

Turn = 30.
  01234567
0 .r...ttt
1 ......t.
2 .rr.....
3 ........
4 ........
5 ........
6 rr......
7 r.......

Turn = 36.
  01234567
0 .rr..ttt
1 ......t.
2 ..r.....
3 r.......
4 r.......
5 r.......
6 ........
7 ........

Turn = 42.
  01234567
0 ....tttt
1 .r....t.
2 rr......
3 ........
4 ........
5 ........
6 r.......
7 ..r.....

*** Darwin 9x16 ***
Turn = 0.
  0123456789012345
0 f.....hh...t....
1 f.r.....th.rf...
2 htrh....tf....r.
3 ...............f
4 h.hth.hrr.h.....
5 f..f..h...r.r...
6 .h.rtr.ff....rhr
7 r..rt.rr.rh..tr.
8 ..h.h..f...ht.f.

Turn = 7.
  0123456789012345
0 rrhrrrr.tt.r.rrr
1 t.h...rrtrhr.rrr
2 tt..r.rrtt.hr.r.
3 rr...r..tt......
4 rr.r............
5 .r.r............
6 ...rr...f......r
7 .r.r.........t..
8 .....r.f....t.f.

Turn = 14.
  0123456789012345
0 .rr...rrrrrrrrr.
1 rr.rr.r..rrr...r
2 ttr.rr..tt...rr.
3 rr......tt.r...r
4 r.r....r........
5 r..r.r..........
6 r.........r...rr
7 .....r.......t..
8 r.rrr.rf.r..t...

Turn = 21.
  0123456789012345
0 rr...rrr.......r
1 r....r.r.....rr.
2 ..r....rrr..r...
3 ...r..rr.....r..
4 .....rr....r..r.
5 ..rr.rr....rr..r
6 r.rr.r.r..rr..r.
7 rrrr.....r.rrr..
8 rr..rr...rr.r.r.

*** Darwin 14x7 ***
Turn = 0.
  0123456
0 f.hrr..
1 tft....
2 rhr....
3 h.f....
4 ...hr.t
5 .r.....
6 t..f...
7 ...fhf.
8 h.h.hf.
9 f.t....
0 rft.hr.
1 h..frf.
2 t..r.f.
3 .f...t.

Turn = 1.
  0123456
0 t.trr..
1 rfr....
2 rhr....
3 h.fhr..
4 .r....t
5 .......
6 t..fh..
7 h.hfhf.
8 .....f.
9 r.t.hr.
0 rft.r..
1 t..r.f.
2 t..r.t.
3 .f...t.

Turn = 2.
  0123456
0 r.rrr..
1 rfr....
2 rhrhr..
3 hrf....
4 ......t
5 ....h..
6 t.hfh..
7 h..f.f.
8 ....hr.
9 r.t.rr.
0 ttt....
1 t.rr.f.
2 t....t.
3 .f...t.

*** Darwin 9x5 ***
Turn = 0.
  01234
0 t...t
1 r...r
2 ....r
3 r....
4 rft..
5 ..fr.
6 hrfft
7 .....
8 .h.t.

Turn = 22.
  01234
0 .r..r
1 .r..r
2 ..rrr
3 r.r..
4 ...r.
5 .ttt.
6 ..r..
7 r.t..
8 ..tr.

*** Darwin 9x10 ***
Turn = 0.
  0123456789
0 .....h....
1 r.........
2 t.....t..r
3 ..h..tr..t
4 ..........
5 rt..r.....
6 ......r...
7 .rf......r
8 ..........

Turn = 12.
  0123456789
0 .r...r.rrr
1 r.........
2 tt........
3 t.........
4 ......r.rr
5 ..........
6 .........r
7 ..f.......
8 ...r.r....

*** Darwin 5x12 ***
Turn = 0.
  012345678901
0 .tt.rhf.....
1 ......h..h..
2 ..f....r..t.
3 hh......rf.t
4 .....rf...h.

Turn = 34.
  012345678901
0 ttt...r....r
1 .tt..r......
2 .ttt......tt
3 ..........tt
4 ..r.......tt

*** Darwin 12x8 ***
Turn = 0.
  01234567
0 ........
1 ........
2 .t......
3 ........
4 ........
5 ........
6 ........
7 ...h....
8 ........
9 ........
0 ........
1 ........

Turn = 4.
  01234567
0 ........
1 ........
2 .t......
3 ...h....
4 ........
5 ........
6 ........
7 ........
8 ........
9 ........
0 ........
1 ........

Turn = 8.
  01234567
0 ...h....
1 ........
2 .t......
3 ........
4 ........
5 ........
6 ........
7 ........
8 ........
9 ........
0 ........
1 ........

Turn = 12.
  01234567
0 ...h....
1 ........
2 .t......
3 ........
4 ........
5 ........
6 ........
7 ........
8 ........
9 ........
0 ........
1 ........

Turn = 16.
  01234567
0 ...h....
1 ........
2 .t......
3 ........
4 ........
5 ........
6 ........
7 ........
8 ........
9 ........
0 ........
1 ........

Turn = 20.
  01234567
0 ...h....
1 ........
2 .t......
3 ........
4 ........
5 ........
6 ........
7 ........
8 ........
9 ........
0 ........
1 ........

Turn = 24.
  01234567
0 ...h....
1 ........
2 .t......
3 ........
4 ........
5 ........
6 ........
7 ........
8 ........
9 ........
0 ........
1 ........

Turn = 28.
  01234567
0 ...h....
1 ........
2 .t......
3 ........
4 ........
5 ........
6 ........
7 ........
8 ........
9 ........
0 ........
1 ........

Turn = 32.
  01234567
0 ...h....
1 ........
2 .t......
3 ........
4 ........
5 ........
6 ........
7 ........
8 ........
9 ........
0 ........
1 ........

Turn = 36.
  01234567
0 ...h....
1 ........
2 .t......
3 ........
4 ........
5 ........
6 ........
7 ........
8 ........
9 ........
0 ........
1 ........

Turn = 40.
  01234567
0 ...h....
1 ........
2 .t......
3 ........
4 ........
5 ........
6 ........
7 ........
8 ........
9 ........
0 ........
1 ........
