*** Darwin 30x30 ***
Turn = 0.
  012345678901234567890123456789
0 ......h................h..f.f.
1 ........r......t....t.........
2 .......h.....................t
3 r.h...t..............r........
4 ........................r...rt
5 ....r....t.......r...........f
6 ..f.....t...f...........t.....
7 .........................h....
8 .r.........f..f.f........rr...
9 ...h..r...f..h..r....t....r...
0 ..............................
1 ...f.............r............
2 .........h..h.f.......t.......
3 ........r.r..r....f...........
4 f.........f...t....t........t.
5 .f........t...h...............
6 .h......ff.h...........t...h..
7 ..t...r...................r...
8 .........r...................f
9 ...........f..........th......
0 ..h....t.....................r
1 .r........f......r............
2 ...........f..................
3 .........................h....
4 ...t...........h..............
5 ..........................f...
6 .....h........................
7 .........h.t...ft.............
8 .....t...........t............
9 t......r......h............hr.

Turn = 100.
  012345678901234567890123456789
0 r..r...rr..............r....r.
1 ...r...........r..rr..........
2 r......tt..........r...r......
3 ......rtt..........r..........
4 ......rt.tt.......r...........
5 .......rt..r..r.........r....r
6 .........tt..rr........r......
7 .........t...................r
8 .........rrr..................
9 ........rr..r.................
0 ..................r...........
1 ...........rr.........r.......
2 .............r.r......r.......
3 r.............................
4 rr.r.......................r.r
5 ...............r..............
6 ..................tt..........
7 ..............r...tt.r........
8 .......t....r..........r......
9 ..............rr..............
0 ......tt..........r...........
1 .....tt.........r.............
2 ......t.......................
3 ......t..r..................r.
4 ..r...........................
5 ..r...............r...........
6 ..............................
7 ...r........................r.
8 .r...............r........r.rr
9 .r......r...........r...r....r

Turn = 200.
  012345678901234567890123456789
0 r.r.........r.r.rr............
1 ..............r......r........
2 ..........t.....r.............
3 .........ttt..................
4 .........tttt.................
5 .........trrr....r............
6 r.r........r....r.......r.....
7 r..........t.tt....r...r....r.
8 ..........tt........r..r......
9 r.......r.ttt......rr....rr...
0 ....................r.........
1 ......r......r................
2 ...................r.r........
3 ..............................
4 .........r.......r............
5 ..........r...........t..r....
6 ......................t......r
7 ..r...............tt.tt.r.....
8 .......ttt........tttt........
9 r.......t..r..................
0 r....tt.....................r.
1 r.....t....................r..
2 ......t.......................
3 ...r..........................
4 ..........r...................
5 ..............................
6 .............................r
7 ..............................
8 r......r......................
9 ........r....rrr.........r....

Turn = 300.
  012345678901234567890123456789
0 r.r............r....r.......r.
1 rr...r..............r.........
2 ....r......r..................
3 ......r....rr............r....
4 .r..........r................r
5 ..r...........................
6 .r.........t...........r......
7 ...r.......tt...........r.....
8 ...........ttt................
9 r.......r...ttt...............
0 ...........t.ttt..............
1 .........r...t................
2 ....................r.r.......
3 .r......................r.....
4 .......r..............rr......
5 rrr..................rrtt.....
6 ..........r..........ttttt....
7 r......r..........tt.tttttt...
8 ..........r......rrrtt.t......
9 r.................r..tt.......
0 ...................t........rr
1 r.............................
2 ..............................
3 ..............................
4 ..............................
5 r.................r...........
6 .............................r
7 .........................r....
8 .............................r
9 r.........r.................r.

Turn = 400.
  012345678901234567890123456789
0 .....r...............r....rr..
1 ............................r.
2 ..............................
3 ..............................
4 ....................r.........
5 .......r....................r.
6 ............r.................
7 .......r...tt.................
8 r...........tttt.r............
9 .............ttt..r...........
0 ...........t.tttt.r...........
1 r..........t.t...r...........r
2 .................r..........rr
3 ............................rr
4 r.......................ttt..r
5 ...........r...........t..tt..
6 ...r......r.........tttttttt..
7 ...................t..tttttt..
8 rr.................tttttt.....
9 ............r..........t......
0 r.............................
1 ..............................
2 ............r.................
3 ...r........r.................
4 ..r...........................
5 r.............................
6 ........................r.....
7 r.....r............r..........
8 .r..rr........................
9 ..r.rr.r...r..............r...

Turn = 500.
  012345678901234567890123456789
0 ....r...........r.r..r........
1 ................r.............
2 .......r...........r..........
3 ..............................
4 ..............................
5 ..........................r...
6 r............................r
7 ..........tttttt..............
8 ............tttt..............
9 .............ttttt............
0 ...........t.ttttt............
1 ...........t.t..tt............
2 .............tt...........t...
3 ..rr......................tttt
4 .......................t.ttttt
5 .....................r.t..ttt.
6 ......................rttttttt
7 ...................ttt.ttttttt
8 ...................tttt.t..ttt
9 ...................tt.t......t
0 ...................tt.........
1 ..............................
2 ..................r..........r
3 ...................r..........
4 .............................r
5 ..............................
6 ..............................
7 .......rr.....................
8 ..............................
9 ..............................

Turn = 600.
  012345678901234567890123456789
0 ..............................
1 ..............................
2 ..............................
3 ..............................
4 ..............................
5 ..............................
6 ..............................
7 ..........tttttt..............
8 ............tttt..............
9 .............ttttt............
0 ...........t.tttttt.......t...
1 ...........t.t..tt........t..t
2 .............tt...........tttt
3 .........................ttttt
4 ..........................tttt
5 ........................ttttt.
6 ........................tttttt
7 ....................t..ttttttt
8 ....................tttttttttt
9 ...................tt.tt...ttt
0 ...................ttt......t.
1 ....................t.........
2 .r............................
3 ..............................
4 ..............................
5 ...r..........................
6 ..............................
7 rr............................
8 r.............................
9 rrr...........................

Turn = 700.
  012345678901234567890123456789
0 .r............................
1 ..............................
2 ..............................
3 r.............................
4 ..............................
5 ..............................
6 ..............................
7 ..........tttttt..............
8 .....r..r...tttt..............
9 .............ttttt............
0 ...........t.tttttt.......t...
1 ...........t.t..tt........t.tt
2 .............tt...........tttt
3 .........................ttttt
4 ..........................tttt
5 ........................ttttt.
6 ........................tttttt
7 ....................t..ttttttt
8 ....................tttttttttt
9 ...................tt.tt...ttt
0 ...................ttt......t.
1 ....................t.........
2 ..............................
3 ..............................
4 .............................r
5 ..............................
6 .............................r
7 ..............................
8 ..............................
9 .............................r

Turn = 800.
  012345678901234567890123456789
0 .............................r
1 ..............................
2 ..............................
3 ..............................
4 ..............................
5 ..............................
6 .............................r
7 ..........tttttt..............
8 ............tttt..............
9 .............ttttt............
0 ...........t.tttttt.......t..t
1 ..........tt.t..tt........t.tt
2 .............tt...........tttt
3 .........................ttttt
4 ..........................tttt
5 ........................ttttt.
6 ........................tttttt
7 ....................t..ttttttt
8 ....................tttttttttt
9 ...................tt.tt...ttt
0 ...................ttt......tt
1 ....................t.........
2 ..............................
3 ..............................
4 ..............................
5 ..............................
6 ..............................
7 rr............................
8 ..............................
9 ..............................

Turn = 900.
  012345678901234567890123456789
0 ..............................
1 ..............................
2 ..............................
3 ..............................
4 ..............................
5 ..............................
6 ..............................
7 ..........tttttt..............
8 ............tttt..............
9 .............tttttt........t..
0 ...........t.tttttt.......tt.t
1 ..........tt.t..tt........t.tt
2 .............tt...........tttt
3 .........................ttttt
4 ..........................tttt
5 ........................ttttt.
6 ........................tttttt
7 ....................t..ttttttt
8 ....................tttttttttt
9 ...................tt.tt...ttt
0 ...................ttt......tt
1 ....................t.........
2 ..............................
3 ..............................
4 ..............................
5 ..............................
6 ..............................
7 ..............................
8 .............................r
9 ..............................

Turn = 1000.
  012345678901234567890123456789
0 ..............................
1 ..............................
2 ..............................
3 ..............................
4 ..............................
5 ..............................
6 ..............................
7 ..........tttttt..............
8 ............tttt..............
9 .............tttttt........t..
0 ...........t.tttttt.......tt.t
1 ..........tt.t..tt........t.tt
2 .............tt...........tttt
3 .........................ttttt
4 ..........................tttt
5 ........................ttttt.
6 ........................tttttt
7 ....................t..ttttttt
8 ....................tttttttttt
9 ...................tt.tt...ttt
0 ...................ttt......tt
1 ....................t........t
2 ..............................
3 ..............................
4 ..............................
5 ..............................
6 ..............................
7 ..............................
8 ..............................
9 ..............................

*** Darwin 30x30 ***
Turn = 0.
  012345678901234567890123456789
0 ....h.........hrr........t.r..
1 ............t.t.....h.........
2 ...........r..rr..f...........
3 ..................f...........
4 ..............................
5 ...f..........r...f...........
6 .......h..f.......th....f.....
7 ..f...........t...............
8 ...t.....t.............f......
9 ....t........f..t.............
0 ....f.......r........f......r.
1 .............f.......r........
2 ..h...........................
3 ...t....t...h............t....
4 ....hfh.t............t........
5 ..t.....r.....................
6 ..........r.h.................
7 ..h...h.......r...............
8 ..................tr.......f..
9 ........f.h..r...f............
0 ...f....t..rf......f....h.....
1 .........f....h...............
2 .........h................t..t
3 .......f..............t.rr....
4 .....r.t.................f...r
5 ........t......h.............h
6 ....................h.........
7 ......f..........r............
8 ............r...............f.
9 ...h.....rt..........h....h...

Turn = 100.
  012345678901234567890123456789
0 rr..........r....r.......rr...
1 .........rr...........r.r...rr
2 r............rr.............r.
3 ......r....r......r..........r
4 ...r...........r.............r
5 r..............r.............r
6 ..........r.......ttt........r
7 ..................ttt.........
8 ...........r..r......r..r....r
9 .....r...............r...r....
0 .....................r........
1 ....r..r...................rr.
2 ....r.r.....r.................
3 .............r................
4 ........r.....................
5 ...........r..................
6 ...................r..........
7 r....rr.........r.r..........r
8 ...........r..................
9 r..............r..............
0 .r....r......................r
1 .......r.....r................
2 ..............................
3 .....................rrr......
4 .....rr......r........tr......
5 ......rr......................
6 .......r.....r................
7 .......r.r..r..............r..
8 .....r.r..........r.......r...
9 ....r.r...........r......r....

Turn = 200.
  012345678901234567890123456789
0 .....r.......r....r....r.....r
1 r................r............
2 ..................r...........
3 ..............................
4 ........r..r..................
5 ..........r......r..tt.......r
6 .................r...tt.......
7 .................r....ttt.....
8 r.............r.......t......r
9 ..r...r.....r.rr.r............
0 ........r..r..................
1 r...........r.................
2 ............r.......r.........
3 ...............r.............r
4 .......r...............r......
5 r.........r......r............
6 ......r..r....................
7 ....r..............rr.........
8 .....r..........r.r..r.....r..
9 ..........r.......r..r.......r
0 ..r........r............r....r
1 .....rrr....r..r..............
2 ............r....r............
3 ....r.r.......................
4 r.rr..........................
5 r...r.........................
6 r.....r.......................
7 .....r........r...r....r.....r
8 .....r.........r...........r..
9 .r...r..................rrr...

Turn = 300.
  012345678901234567890123456789
0 r...rr..........r.r...r.......
1 r....r........................
2 r.....r.......................
3 r................r............
4 .........................r....
5 .....................tt.tr....
6 r....................t.tt.....
7 ..r..................t.tt..r..
8 ..........rr.........t.tttt...
9 ................r.....tttt..rr
0 .......................t.....r
1 ..............................
2 ....rr....r...r..............r
3 ..............................
4 r...............r...r....r....
5 .........................r...r
6 ..............................
7 .....r....r...r..............r
8 ..rr..................r.......
9 ..rr......r............r......
0 ...........r............r.....
1 rr..............r.............
2 .............................r
3 ..............r...............
4 .......r.........r.....r......
5 .......r...r..................
6 ...............r..........r...
7 .r.............r..............
8 rr..r.r.r........r..........r.
9 r...rr..........r......r......

Turn = 400.
  012345678901234567890123456789
0 r..r................r........r
1 ..rr...r..r...................
2 .rr.r..r......r.....r.........
3 .....r.....r..r......r........
4 ..............................
5 ..........................tt..
6 .......................r..t...
7 .........r..............ttt...
8 ....r........r.........ttttt..
9 ..........r.r...r.......tt....
0 .......r......r.......rtttt...
1 r......................tt.....
2 r.............................
3 ..............................
4 ......r.......................
5 r.......r....................r
6 .............................r
7 ..........r................r..
8 r...........................rr
9 ..............r.r.........rr..
0 ............r.........r.......
1 .....r........................
2 ..............................
3 r..rrr...rrr..................
4 rr..rr........................
5 rr..r........................r
6 r.r....................r......
7 ..............................
8 ...r..........................
9 ..rrr.r....r....r..r..........

Turn = 500.
  012345678901234567890123456789
0 ......r............r.......r..
1 ...r............r.....r.......
2 .............................t
3 r.rr............r...........tt
4 ...........................ttt
5 .........................ttttt
6 ...........r.............ttttt
7 ....................r..ttt..tt
8 r......................tttt.t.
9 .......................tttt.tt
0 r.........................tt..
1 ..........................tttt
2 ...........r...............ttr
3 ............r................r
4 .........r...........r........
5 ...........rr.................
6 ..............................
7 .....r.............r..........
8 ..........r..................r
9 .........r....................
0 ..............................
1 ..............................
2 rr............................
3 rr........r.........r.........
4 .r.........r..................
5 r.............................
6 .............r................
7 r...r.........................
8 .r.............r..r.......r...
9 r.rrr......r.rr.rr............

Turn = 600.
  012345678901234567890123456789
0 ..........r....r.rr..........r
1 .....................r.....rt.
2 ..........................tttt
3 ..........................tttt
4 .........................rrrtt
5 ................r.....t...tttt
6 ......................tttttttt
7 ....................ttttttt.tt
8 .r.....................tttt.t.
9 ......................ttttt.tt
0 .......................tttt.tt
1 .......................t..tttt
2 ....r..................r.....t
3 .....r................rr.....t
4 .....r.....................r.t
5 ........................r..r..
6 ..............................
7 ..............................
8 ..............................
9 ..............................
0 ...r...r......................
1 ........r.....................
2 ..............................
3 r...........r.................
4 r..r..........................
5 ....r.........................
6 ..............................
7 ..............................
8 ..............................
9 .............r........r....r.r

Turn = 700.
  012345678901234567890123456789
0 .........r.rr.................
1 ............................tt
2 ......r......rr............ttt
3 ............r.............tttt
4 ..........................tttt
5 ......................ttt.tttt
6 r..................tt.tttttttt
7 ....................ttrtttt.tt
8 ..................ttt.rtttt.t.
9 ......................ttttt.tt
0 .......................tttt.tt
1 .......................t..tttt
2 .......................t..tttt
3 ................r......ttt..tt
4 .......................t.....t
5 .............................t
6 ..............................
7 ..............................
8 ..............................
9 ..............................
0 ..............................
1 ..............................
2 ..............................
3 ..............................
4 ........rr....................
5 ..............................
6 ..............................
7 ..............................
8 ..............................
9 ........r.r...................

Turn = 800.
  012345678901234567890123456789
0 ...........................ttt
1 ............................tt
2 ...........................ttt
3 ..........................tttt
4 ..........................tttt
5 ......................ttt.tttt
6 ...................tt.tttttttt
7 ....................ttttttt.tt
8 ..................ttt.ttttt.t.
9 ......................ttttt.tt
0 .......................tttt.tt
1 .......................t..tttt
2 r......................t..tttt
3 .......................ttttttt
4 .......................t.....t
5 .............................t
6 ................r............t
7 .....r..........r.............
8 ................r.............
9 ..............................
0 ..............................
1 ..............................
2 ..............................
3 ..............................
4 ..............................
5 ..............................
6 ..............................
7 ..............................
8 ..............................
9 .................r...........r

Turn = 900.
  012345678901234567890123456789
0 .....................r.......t
1 ............................tt
2 ...........................ttt
3 ..................r.......tttt
4 ........................t.tttt
5 .....................t.tt.tttt
6 ...................ttt.ttttttt
7 ....................ttttttt.tt
8 ..................ttt.ttttt.t.
9 ......................ttttt.tt
0 .......................tttt.tt
1 .......................t..tttt
2 .......................t..tttt
3 .......................ttttttt
4 .......................r....tt
5 ......................rr....tt
6 .......................r.....t
7 ..............................
8 ..............................
9 ..............................
0 ..............................
1 ..............................
2 ..............................
3 r.............................
4 ..............................
5 ..............................
6 ..............................
7 ..............................
8 ..............................
9 ..............................

Turn = 1000.
  012345678901234567890123456789
0 ............................tt
1 ...........................ttt
2 ...........................ttt
3 ..........................tttt
4 ........................t.tttt
5 .....................t.tt.tttt
6 ...................ttt.ttttttt
7 ....................ttttttt.tt
8 ..................ttt.ttttt.t.
9 ......................ttttt.tt
0 .......................tttt.tt
1 .......................t..tttt
2 .......................t..tttt
3 .......................ttttttt
4 .......................t....tt
5 .......................t....tt
6 ............................tt
7 .............................t
8 .............................r
9 ..............................
0 ..............................
1 ..............................
2 ..............................
3 ..............................
4 ..............................
5 ..............................
6 ..............................
7 ..............................
8 ..............................
9 ..............................

*** Darwin 30x30 ***
Turn = 0.
  012345678901234567890123456789
0 .............r..f.r..f..t.r...
1 ...f.t.........f.h..t.....r...
2 ............r.........t.t...r.
3 ........r..............t......
4 .............h................
5 .h........t.f.h...............
6 ...h.................t........
7 rh....t.......................
8 .........th....f..............
9 ..............h...r..h....h..f
0 ..........................h...
1 ..f.f.......................r.
2 ..r.r..f......................
3 ........t..............r......
4 ...t........r.........r.......
5 ....fh........................
6 ....f........t........h..f....
7 ....h.......tf.r..............
8 .....h.................tr.....
9 ...t...h.f..r.......fr.....ft.
0 ..ht........................r.
1 h..t..f......t........h.......
2 .........h...........f..f.....
3 ..f..............r............
4 ..........r....r....h.........
5 ..........................h...
6 .....t.......t.t..............
7 .....f........f...............
8 ...........r.................f
9 ......f......h................

Turn = 100.
  012345678901234567890123456789
0 ......................r.....rr
1 ......................rtt....r
2 ........................ttt...
3 ......r.................tt....
4 r.........t............r......
5 ..........t...........t.......
6 ..........t...........t.......
7 ..r.......t..r................
8 ..............................
9 ..........t..r...............r
0 ..r.....ttt.r..............r..
1 .........ttt................r.
2 .........r....................
3 ....tt.tttt...................
4 ...tttt.......................
5 ...ttttt......................
6 .....t.................r......
7 ...r..........t......rrr......
8 ......r.......tt.........t....
9 .....rr...r...t...............
0 ........rr....tt..............
1 .....r.........tt.............
2 ...r...........t..............
3 .r.............t..............
4 .r..r......................r..
5 ...........................r..
6 .r.....r.....r................
7 .........r.r..................
8 ..r...r..r...........r........
9 .r.rr.........r...............

Turn = 200.
  012345678901234567890123456789
0 ............r..r....r...tr.r.r
1 .......................rrrr.r.
2 ......................t.t.tt..
3 ......r..............r.rtt.t..
4 .......................t......
5 .....................ttt......
6 ..........t...........t.......
7 ..........t...........t.......
8 ..............................
9 .........t....................
0 ........tttt..................
1 .........ttttt....r...........
2 .....t......t.................
3 ...ttt.tttt.t.................
4 ...tttt.t.....................
5 r...tttttt....................
6 ....ttt.......................
7 .r..t.t.......tt..............
8 ......t......ttt.........t....
9 r............ttt..............
0 ..............tt.t............
1 ...............tttt...........
2 ..............tt..............
3 ..............tt..............
4 ...............t..............
5 ...............t..............
6 .........................r....
7 ..............................
8 ..............................
9 .............................r

Turn = 300.
  012345678901234567890123456789
0 ......r...r...............r...
1 r.........................r...
2 ........................tt....
3 ........................t.....
4 .r............................
5 .....................ttt......
6 ..........t..........tt.......
7 .........tt..........t........
8 .........tt...................
9 ........tttt..................
0 ........tt....................
1 .........tttttt..............r
2 .....t......t.................
3 ...ttt.tttt.t.................
4 ...tttt.t.....................
5 ....tttttt....................
6 ....ttt.......t...............
7 ....ttt.......tt..............
8 .....tt......tttt.............
9 .............tttt.t...........
0 ..............tt.tt...........
1 ...............tttt...........
2 ..............tt...........r..
3 ..............tt.............r
4 ...............t..............
5 ...............t...........r..
6 ...............t.............r
7 ..............................
8 ..............................
9 ...........................r.r

Turn = 400.
  012345678901234567890123456789
0 ..............................
1 ........................t.....
2 ........................tt....
3 ........................t.....
4 ..............................
5 .....................ttt......
6 ..........t..........tt.......
7 .........tt..........t........
8 .........tt...................
9 ........tttt..................
0 ........tt....................
1 .........tttttt..............r
2 .....t......t.................
3 ...ttt.tttt.t.................
4 ...tttt.t.....................
5 ....tttttt....................
6 ....ttt.......tt..............
7 ....ttt.......tt..............
8 .....tt......tttt.t...........
9 .............tttt.t...........
0 ..............tt.ttt..........
1 ...............tttt...........
2 ..............tt..t...........
3 ..............ttt.............
4 r..............tt.............
5 ...............t..............
6 ...............t..............
7 ...............r..............
8 ................r.............
9 .................rr...........

Turn = 500.
  012345678901234567890123456789
0 ...................r...rrt....
1 ........................t.....
2 ........................tt....
3 ........................t.....
4 ..............................
5 .....................ttt......
6 ..........t..........tt.......
7 .........tt..........t........
8 .........tt...................
9 ........tttt..................
0 ........tt....................
1 .........tttttt...............
2 .....t......t.................
3 ...ttt.tttt.t.................
4 ...tttt.t.....................
5 ....tttttt....................
6 ....ttt.......tt..............
7 ....ttt.......tt..............
8 .....tt......tttt.t...........
9 .............tttt.t...........
0 ..............tt.ttt..........
1 ...............tttt...........
2 ..............tt..t...........
3 ..............tttt............
4 ...............tt.............
5 ...............t..............
6 ...............t..............
7 ..............................
8 ..............................
9 .......r......................

Turn = 600.
  012345678901234567890123456789
0 .r............................
1 ..............................
2 r.......................tt....
3 r.......................t.....
4 ..............................
5 r....................tt.......
6 ..........t..........ttt......
7 .........tt..........t........
8 .........tt...................
9 ........tttt..................
0 ........tt....................
1 .........tttttt...............
2 .....t......t.................
3 ...ttt.tttt.t.................
4 ...tttt.t.....................
5 ....tttttt....................
6 ....ttt.......tt..............
7 ....ttt.......tt..............
8 .....tt......tttt.t...........
9 .............tttt.t...........
0 ..............tt.ttt..........
1 ...............tttt...........
2 ..............tt..t...........
3 ..............tttt............
4 ...............tt.............
5 ...............t..............
6 ...............tt.............
7 ..............................
8 ..............................
9 ..........................r...

Turn = 700.
  012345678901234567890123456789
0 .....................rr......r
1 .........................t....
2 ........................tt....
3 ........................t.....
4 ..............................
5 .....................tt.......
6 ..........t..........ttt......
7 .........tt..........t........
8 .........tt...................
9 ........tttt..................
0 ........tt....................
1 .........tttttt...............
2 .....t......t.................
3 ...ttt.tttt.t.................
4 ...tttt.t.....................
5 ....tttttt....................
6 ....ttt.......tt..............
7 ....ttt.......tt..............
8 .....tt......tttt.t...........
9 .............tttt.t...........
0 ..............tt.ttt..........
1 r..............tttt...........
2 ..............tt..t...........
3 ..............tttt............
4 ...............tt.............
5 ...............t..............
6 ...............tt.............
7 ..............................
8 ..............................
9 ..............................

Turn = 800.
  012345678901234567890123456789
0 r.............................
1 ..............................
2 ........................tt....
3 ........................t.....
4 ..............................
5 .....................tt.......
6 .........rt..........ttt......
7 .........tt..........t........
8 .........tt...................
9 ........tttt.................r
0 ........tt....................
1 .........tttttt...............
2 .....t......t................r
3 ...ttt.tttt.t.................
4 ...tttt.t.....................
5 ....tttttt....................
6 ....ttt.......tt..............
7 ....ttt.......tt..............
8 .....tt......tttt.t...........
9 .....t.......tttt.t...........
0 ..............tt.ttt..........
1 ...............tttt...........
2 ..............tt..t...........
3 ..............tttt............
4 ...............tt.............
5 ...............t..............
6 ...............tt.............
7 ..............................
8 ..............................
9 ..............................

Turn = 900.
  012345678901234567890123456789
0 .r..r.....r...................
1 .r............................
2 ..............................
3 ...r..........................
4 ..r...........................
5 ......................t.......
6 .r............................
7 .........tt..........t........
8 r........tt...................
9 ........tttt....rr............
0 ........tt....................
1 ........tt....................
2 .....t......tt................
3 ...ttt.tttttt.................
4 ...tttt.t.....................
5 ....tttttt....................
6 ....ttt.......tt..............
7 ....ttt.......tt.........r....
8 .....tt......tttt.tt......r...
9 .....t.......tttt.t...........
0 ..............tt.ttt..........
1 ...............tttt...........
2 ..............tt..t...........
3 ..............tttt............
4 ...............tt.............
5 ...............t........r.....
6 ...............tt.............
7 ..............................
8 ..............................
9 ..............................

Turn = 1000.
  012345678901234567890123456789
0 .............................r
1 ..............................
2 ..............................
3 .............................r
4 ..............................
5 ......................t.......
6 ..............................
7 .........tt..........t........
8 .........tt...................
9 ........tttt..................
0 ........tt....................
1 .....t..tt....................
2 .....t......tt................
3 ...ttt.tttttt.................
4 ...tttt.t.....................
5 ....tttttt....................
6 ....ttt.......ttt.............
7 ....ttt.......tt..............
8 .....tt......ttttttt..........
9 .....t.......tttt.t...........
0 ..............tt.ttt..........
1 ...............tttt...........
2 ..............tt..t...........
3 ..............tttt............
4 r.............ttt.............
5 ...............t..............
6 r.............ttt.............
7 ..............ttt.............
8 ...r..........................
9 ..............................

*** Darwin 30x30 ***
Turn = 0.
  012345678901234567890123456789
0 ...f....h....................r
1 ..t..........r..th...h........
2 ..............f......h........
3 .......................fh.....
4 .....................t........
5 f.........h.....t.......r..t..
6 ...........f.f....fh..........
7 ...........tt.................
8 .......f..........h..........r
9 .r...r..f....................f
0 ..fr....f..................h..
1 t.t...........................
2 ........f.f...................
3 .t........r...r..f..........r.
4 ..............rr............t.
5 ..................h....f......
6 .f........h..........r........
7 .......f..r..t...t..........h.
8 ..h......................f....
9 f........................r....
0 ..................h.......r...
1 f..........r............th....
2 ..f....h......r...............
3 ....t..........t.......r..fht.
4 .........r....................
5 .t................h.t.t.......
6 ..................r....f......
7 ......h...................t...
8 .....hf........r.....t........
9 ...........................t.r

Turn = 100.
  012345678901234567890123456789
0 ...............r..............
1 .r....r.....r.r.....r.........
2 ....r.r.......................
3 .r.............r......r.......
4 rr..................ttt......r
5 ...r..r.....tt...r.r..t.......
6 .....r......ttt...r...........
7 ...........ttttt..............
8 ............tttt..............
9 ............r.ttt.............
0 .......................r......
1 ..................r...........
2 ......r.......................
3 ......r.......................
4 ...........................ttt
5 .................r...........t
6 ..............................
7 ..rr........r...r.............
8 .............rrr..............
9 ....................r.........
0 rr...............r...r...r....
1 ...r....................ttt...
2 ....r.r.......................
3 ..................r.r.......tt
4 ....t.......................tt
5 r......r......................
6 ......r.r...............r.....
7 r....r........................
8 ....r...................r.....
9 rr..r.....r..............r....

Turn = 200.
  012345678901234567890123456789
0 r.rr.r..................rr....
1 .rr...........................
2 ..............................
3 ..r..rr.............ttt...r...
4 ..............t....rtt...r.r..
5 ....rr.....t.tt......tt.......
6 ...........ttttt............r.
7 .....r.....ttttt....r.........
8 r...........tttt..............
9 .............ttt..............
0 ..............................
1 ........rr.....r..............
2 ......r........r...r..........
3 ........r....................r
4 ......rrr.............r.......
5 r.....................r.......
6 r........r....................
7 r........r....................
8 .......................r......
9 ..............................
0 .......r......................
1 .....................r........
2 ...........................r..
3 ..............................
4 r...r.........................
5 ...rr......r..................
6 ........................rr....
7 ....r.........................
8 ....rrrr..r..r.......rr.r.....
9 .................r.......rr...

Turn = 300.
  012345678901234567890123456789
0 .....r...r...r...r....r.......
1 ...r....r....rr...............
2 .......r.....r................
3 ........r.rt...t..............
4 ...........t..tt..............
5 ..........tt.tt.t.............
6 ..r........ttttttt......rr....
7 .........ttttttt..............
8 ....r....ttttttt..............
9 r..........ttttttt........r...
0 r..............t..............
1 ..............................
2 ...........................rrr
3 ...rr.........................
4 .......r.r....................
5 r.rr........................r.
6 ....................r..r......
7 ....................r.........
8 .......r......................
9 ..............................
0 ...rr..r......................
1 ....r........................r
2 r.............................
3 r.............................
4 ............................r.
5 r....r........................
6 r....r........................
7 ............................r.
8 ........r.....................
9 .r........rr..................

Turn = 400.
  012345678901234567890123456789
0 ......r.r..............r......
1 ..............................
2 ..............t...............
3 r.............ttt.............
4 ............tttt.t............
5 ...........tttttrt.........r..
6 ..........ttttt.rtt.........r.
7 .........t.ttttt............r.
8 .........tttttttt.........r...
9 ........ttttttt....r..........
0 .rr.......tttt......r....r....
1 ..............................
2 .............................r
3 ......................r....rr.
4 ..............................
5 ................r.............
6 ......r........r..............
7 ..............................
8 r...r.........................
9 ...r..........................
0 ..............................
1 ..............................
2 ..............................
3 ..............................
4 ..............................
5 .............r.......r........
6 ...............r....r....r...r
7 ............r.........r.......
8 .............r..r............r
9 ......r..r........rr..r.r...rr

Turn = 500.
  012345678901234567890123456789
0 ....r...rr.r......r......r....
1 .................rrr..........
2 ..............ttrr.......r....
3 ..............tttr.........r..
4 ..............t..rr...........
5 ..............rttttr......r...
6 ...r.........r.tttrr......r...
7 ..........t...rtt.............
8 r........ttttttt..............
9 .........tttttt...............
0 ..........ttttt...............
1 ..........tt..t...............
2 .....r........................
3 .....r......................r.
4 ..r...........................
5 ..............................
6 ..r...........................
7 ..............................
8 ..............................
9 ..............................
0 rr..............r.............
1 .....rr.......................
2 r.............................
3 ..............................
4 .............................r
5 ..............................
6 r...............r..........r..
7 r...................r.........
8 rrr.r......r..................
9 rr..r...r.............r.....r.

Turn = 600.
  012345678901234567890123456789
0 ....r...................rr....
1 .......r......................
2 ............ttt...............
3 ............tt....r...........
4 .............tt.ttt.t.........
5 ............tttttttttt........
6 ...............tttt...........
7 .........trtt...ttt.........r.
8 .........rttttttt.............
9 ..........ttttt.ttt...........
0 ........tttttttt..............
1 r.........tt..t..............r
2 ..........t..tt...............
3 .............t.............r..
4 ..........................r...
5 ......................r.......
6 ..............................
7 ..............................
8 ......................r.......
9 ..................r...........
0 ..............................
1 ..............................
2 ........................r.....
3 .....r......................r.
4 ....r......................r..
5 ..............................
6 ..............................
7 ..............................
8 .r......................r....r
9 .....r........r.....r.r.r..rr.

Turn = 700.
  012345678901234567890123456789
0 rrrr....r......t.............r
1 ..r..r.......ttt..............
2 .............tttt.............
3 r.r..........tt...............
4 ...r.........t.....t..........
5 .....r.......tttttttt.........
6 .............tttttttt.........
7 r..r.........ttttt............
8 r.r..........tttt.tt..........
9 ....r.......t..tttt...........
0 ...........tt.................
1 r.........tt..................
2 ...r..........................
3 r....rr.......................
4 ..............................
5 ..............................
6 rr.r..........................
7 ..............................
8 ..............................
9 ..............................
0 ..............................
1 r........................r....
2 ..............r...............
3 .............r..............rr
4 ...........................r..
5 ..............r...............
6 .......r..r...................
7 ......r...r...................
8 r................r..r.....r...
9 r.................r...........

Turn = 800.
  012345678901234567890123456789
0 ...rr..............r.....r.r..
1 ...r..........................
2 .rrr.r..............r.........
3 ...r.................r..r....r
4 .....r......................r.
5 ....r.r....................r..
6 ..rrr............r.........r..
7 ...r............rr.t..........
8 .r..........tr....tt..........
9 ............tt.....t..........
0 rrr..........tt....t..........
1 rr...........t................
2 r......r..ttt.................
3 ...r....r.tr..................
4 ...............r..............
5 r.........r.................r.
6 ..............................
7 .....r....................r..r
8 r.r........................r.r
9 .r.........r..................
0 ..r...r.......r.r.............
1 ......r...................r...
2 ........r..r............r....r
3 ......r................r......
4 ..............................
5 .....r.............r..r.......
6 ..r...........................
7 ...........................r.r
8 ........rr...................r
9 ..r.......................r...

Turn = 900.
  012345678901234567890123456789
0 rrr................rr......rrr
1 r.......r.......r............r
2 .........rr...................
3 rr............................
4 r.r..............r............
5 r.............................
6 ..............................
7 ......................r.......
8 ..r........r..................
9 .r........r...................
0 ..rr..........................
1 .....r........................
2 ......................r......r
3 ........r.....................
4 r.....r...............r......r
5 r......rr............r........
6 r...r.r..r.................rrr
7 ...r...r....................rr
8 ......rr...r...............r..
9 rr..........r.........r......r
0 .................r............
1 .r..............r.............
2 ...r..........................
3 ...............r..............
4 ........r....r........r.......
5 r........r.....r.............r
6 ...r.......r...........r......
7 ..........r.r..r........r.....
8 ............rrr........r.....r
9 r............rr...rr...r....rr

Turn = 1000.
  012345678901234567890123456789
0 ...rr..r...r......r..r........
1 .....r....r..................r
2 r.........r.....r....rr......r
3 ....r................r........
4 r.r.................r.........
5 .rr.r........r................
6 .....r.......r.....rr.........
7 ..........r................r..
8 ..............................
9 .............................r
0 ..............................
1 ...........................r..
2 r..........r........r........r
3 r....................rr....r.r
4 rr..........................r.
5 ........r...r.r.............r.
6 r...r...r...r....r......r.....
7 ....r...r..................r.r
8 r..r.....rr.........r.....r...
9 r.r.r...................r.....
0 r.............................
1 r.............................
2 ......r...r...................
3 ...........r..................
4 ........r..................r..
5 ...................r..........
6 ..............................
7 .r.r...r..........r...........
8 ...r.r....r......r..........r.
9 ......r..rr.......r......r...r

*** Darwin 30x30 ***
Turn = 0.
  012345678901234567890123456789
0 ..f.............r.............
1 .........t........r...........
2 .....f.....t...r.........t....
3 .f...........r.f............r.
4 ...h.......r...........r.f....
5 ..r....h.......r....r.........
6 .......t....................fr
7 ..............t..............t
8 ......................f.f..f..
9 .f.f......r...h......t........
0 .......................h......
1 h....t........................
2 ..r.............r..h........f.
3 ........f...................h.
4 .f.........fh......h..........
5 .....t.............h..........
6 r...........t.....r......h....
7 ..h..................f.t......
8 .....f..................hr....
9 t...................r.........
0 t.....f.......t.............f.
1 ..............h..f..f......h..
2 ....h..h.....................r
3 ...r...................h..f.r.
4 ........................t.....
5 ......h............f...t......
6 ........t.f..t................
7 ..t..........................t
8 .........................r....
9 ....r......th........trf......

Turn = 100.
  012345678901234567890123456789
0 ......rrrr..r.rr.........rrr..
1 r.................r.r.........
2 ..............................
3 .r...............r............
4 ....r.........................
5 r.............................
6 ..............................
7 r..r...........r..............
8 r.............................
9 ...................r.......r..
0 ..............................
1 rr.........................r..
2 r.............................
3 rr............................
4 r.............................
5 ...........r..................
6 ..r...r.............r..r......
7 r.............................
8 r.............................
9 .....rr..r...............r....
0 ...rrr.......t..r.....r.......
1 .............ttt.........r..rr
2 .......r...............tt.....
3 .........r............ttt....r
4 ........r...r...r....rtttrr...
5 ..r.r.......rr................
6 ...........rr.............r...
7 .......rr....................r
8 r.r...r....t..................
9 r.r....rr.........rrr.........

Turn = 200.
  012345678901234567890123456789
0 .....r...r................r...
1 r......r......................
2 ..............................
3 r..r.................r.......r
4 .r............................
5 r...............rrr...........
6 .....r...r.......r............
7 ....r...r.....................
8 ..................r.r.........
9 ..............................
0 ..............................
1 ..............................
2 r...............r.............
3 .r..............r.............
4 ............................r.
5 ......r......r..........r.....
6 .................r.....r.....r
7 r..............r..............
8 .r.............r...........r..
9 ..rr....r........t.r..........
0 ........r...r..ttt.....t..t...
1 ............rr..tt....tt..t...
2 ..r....rr...r...t......tttt...
3 r..............tt......tttt...
4 ..r......................r....
5 r...........rr..........rr....
6 .........................t....
7 ............r.................
8 ........rr.....r...........rr.
9 rr..r....r................r...

Turn = 300.
  012345678901234567890123456789
0 ......r.rr..rr...........r....
1 ......rrr.......r.............
2 .....r..........r............r
3 ..r...rr......r...............
4 r...............r.............
5 r.....................r..r....
6 rr............................
7 r..................r...r......
8 ...........................r..
9 ..................r...........
0 .....r....r...................
1 r...r.........................
2 ..............................
3 ........r....................r
4 ......r......................r
5 .......................r......
6 ..............................
7 .................r............
8 ....r............rr...........
9 .r......r........rrr.....t....
0 ......r.........t.r...t..tt...
1 ..r.r......r....tttr..t...t...
2 ..r..............t....t.rtt...
3 ................ttt.....ttt...
4 .........................t....
5 .r....................r.......
6 .....r......r..........r.t....
7 r.............................
8 ..r......................r....
9 rr.r.r.rr.....................

Turn = 400.
  012345678901234567890123456789
0 .......r....r..........r....r.
1 ......r......r................
2 ...........r.........r......rr
3 ............r...............rr
4 r..................r........r.
5 ..r...............r...........
6 ...rr.........................
7 r....r........................
8 .r....r...r...........r.......
9 r.............................
0 ..............................
1 ......................r.......
2 ..............................
3 ..............................
4 ..............................
5 ...............r..............
6 ..............................
7 r.............................
8 ...........r.................r
9 .....r..................tt....
0 .....r...........tt..tt..tt.r.
1 ...............rrtt...ttt.t..t
2 ...............rtt....t.ttt..t
3 ..............r.tttt..t.ttt..t
4 r...r............t.t......tttt
5 r...........r................t
6 ..........rr..................
7 .........rr...................
8 ...........................r..
9 r.r..............r..........rr

Turn = 500.
  012345678901234567890123456789
0 ..............................
1 ..............................
2 ....r.........r.............rr
3 ......r......................r
4 .r............................
5 .....rr.......................
6 ......r.......................
7 ..............................
8 ...r..........................
9 r...r...r............r........
0 .....................r........
1 .....................r........
2 .....................r........
3 ..............................
4 ....................r........r
5 ..................rr....r.r...
6 ..........r.rr....r......r....
7 ..........r................r..
8 ...........r......t...........
9 ..................t.....tttt.t
0 .................tt..tt..ttttt
1 ..................tt..ttt.tttt
2 .....................ttttttttt
3 .....................tttttttt.
4 ...................ttt...tt...
5 .....................t........
6 ..................r..........r
7 .................r............
8 r............r........rr......
9 r.r..r...............r........

Turn = 600.
  012345678901234567890123456789
0 rr..r.............r.r.........
1 ....r........................r
2 ..rr.........................r
3 r....r..............r.........
4 .....................r..r.....
5 ....................r.........
6 ...................r..........
7 ......r.......................
8 .r...r.....................r..
9 r...r.........................
0 ....r...........r.............
1 ................r.............
2 .................r............
3 ..............................
4 r.............................
5 ..............................
6 ..............................
7 ..............................
8 .............................t
9 .....................t..tttttt
0 .....................ttt.ttttt
1 .....................tttt.tttt
2 .....................ttttttttt
3 ....................tttttttttt
4 ..........r.........tttt.tt.tt
5 ....................ttt......t
6 .............................t
7 ..............................
8 ..............r...............
9 ....rr................r...r..r

Turn = 700.
  012345678901234567890123456789
0 ...rr....................rr...
1 ........................r.....
2 ...................r..........
3 ..............................
4 ..............................
5 .............................r
6 r...........................r.
7 r.............................
8 ..............................
9 ..............................
0 .................r............
1 ..............................
2 ..............................
3 ......................r.....r.
4 .......r.r....r...............
5 ........r.......r.r...........
6 ..............................
7 ..............................
8 ....................rr.tt.t...
9 ..........r............t..ttt.
0 ....................rtttttttt.
1 ....................tttttttttt
2 ...................ttttttttttt
3 ...................rtttttttttt
4 ....................t..t.tt.tt
5 ....................t.....tt.t
6 ...........................t.t
7 r.........r......r...........t
8 ..........r.................rr
9 .....r........r...............

Turn = 800.
  012345678901234567890123456789
0 ....r.........................
1 ....r.........................
2 ..............................
3 ..............................
4 .....r........................
5 ..............................
6 .........r....................
7 r.............................
8 ..............................
9 ..............................
0 ..............................
1 ..............................
2 ..............................
3 ..............................
4 ..............................
5 ..............................
6 ..........................t...
7 ..r.......................tttt
8 .....................rrtrttttt
9 .......................rr.tttt
0 ......................r.tttttt
1 ...................r.ttttttttt
2 ....................tttttttttt
3 ....................t.t.tttttt
4 ...............r....tr...tt.tt
5 ................r...t..r.ttttt
6 ...................r.......ttt
7 .......................r...ttt
8 .......r...................t..
9 .r.............r...r......rt..

Turn = 900.
  012345678901234567890123456789
0 ........r.....r...............
1 ..............................
2 ..............................
3 .............................r
4 ..............................
5 ..............................
6 ..............................
7 ..............................
8 ..............................
9 ..............................
0 ..............................
1 ..............................
2 ........................r.....
3 ........................r.....
4 ..............................
5 .....................r........
6 ......r...................ttt.
7 ..........................tttt
8 ........................tttttt
9 ........................tttttt
0 ....................tt..tttttt
1 ....................tttttttttt
2 ....................tttttttttt
3 ....................t.t.tttttt
4 ....................t....tt.tt
5 ....................tt...ttttt
6 .....................t....tttt
7 ...........................ttt
8 ...........................ttt
9 ...........r...r...r......tt.t

Turn = 1000.
  012345678901234567890123456789
0 ............r.................
1 ..............................
2 ..............................
3 ..............................
4 ..............................
5 ..............................
6 ..............................
7 ..............................
8 ..............................
9 ..............................
0 ..............................
1 ..............................
2 ..............................
3 ..............................
4 ..............................
5 .............................t
6 ..........................tttt
7 ..........................tttt
8 ........................tttttt
9 ........................tttttt
0 ....................tt..tttttt
1 ....................tttttttttt
2 ....................tttttttttt
3 r...................t.tttttttt
4 ....................t.ttttt.tt
5 ....................tt...ttttt
6 ....................tt....tttt
7 ...........................ttt
8 ...........................ttt
9 .........................ttt.t

